{
    "parent": "block/cube_bottom_top",
    "textures": {
        "top": "item/barrier",
        "bottom": "item/barrier",
        "side": "item/barrier"
    },
    "overrides": [
        {
            "predicate": {
                "have": 0
            },
            "model": "expcontainer:block/spruce_small_box_deactive"
        },
        {
            "predicate": {
                "have": 1
            },
            "model": "expcontainer:block/spruce_small_box_active"
        }
    ]
}