{
    "replace" : false,
    "values" : [
        "expcontainer:reinforced_oak_small_box",
        "expcontainer:reinforced_birch_small_box",
        "expcontainer:reinforced_spruce_small_box",
        "expcontainer:reinforced_acacia_small_box",
        "expcontainer:reinforced_jungle_small_box",
        "expcontainer:reinforced_warped_small_box",
        "expcontainer:reinforced_crimson_small_box",
        "expcontainer:reinforced_dark_oak_small_box"
    ]
}