{
    "type": "minecraft:block",
    "pools": [
        {
            "rolls": 1,
            "entries": [
            	{
            		"type" : "minecraft:alternatives",
            		"children": [
                        {
                            "conditions": [
                                {
                                    "condition": "minecraft:match_tool",
                                    "predicate": {
                                        "enchantments": [
                                            {
                                                "enchantment": "minecraft:silk_touch",
                                                "levels": {
                                                    "min": 1
                                                }
                                            }
                                        ]
                                    }
                                }
                            ],
                            "functions" : [
                                {
                                    "function" : "minecraft:copy_nbt",
                                    "source" : "block_entity",
                                    "ops" : [
                                        {
                                            "source" : "XP",
                                            "target" : "BlockEntityTag.XP",
                                            "op" : "replace"
                                        },
                                        {
                                            "source" : "MaxXP",
                                            "target" : "BlockEntityTag.MaxXP",
                                            "op" : "replace"
                                        }
                                    ]
                                },
                                {
                                    "function" : "minecraft:copy_state",
                                    "block" : "expcontainer:birch_small_box",
                                    "properties" : [
                                        "have",
                                        "lit"
                                    ]
                                }
                            ],
                            "type" : "minecraft:item",
                            "name" : "expcontainer:birch_small_box"
                        },
                        {
                            "functions" : [
                                {
                                    "function": "minecraft:explosion_decay"
                                }
                            ],
                            "conditions": [
                                {
                                    "condition": "minecraft:survives_explosion"
                                }
                            ],
                            "type" : "minecraft:item",
                            "name" : "expcontainer:birch_small_box"
                        }
                    ]
                }
            ]
        }
    ]
}
