{
    "type": "minecraft:block",
    "pools": [
        {
            "rolls": 1,
            "entries": [
                {
                    "type": "minecraft:item",
                    "functions" : [
                    	{
                    		"function" : "minecraft:copy_nbt",
                    		"source" : "block_entity",
                    		"ops" : [
                    			{
                    				"source" : "XP",
                    				"target" : "BlockEntityTag.XP",
                    				"op" : "replace"
                    			},
                                {
                                    "source" : "MaxXP",
                                    "target" : "BlockEntityTag.MaxXP",
                                    "op" : "replace"
                                }
                    		]
                    	},
                    	{
                    		"function" : "minecraft:copy_state",
                    		"block" : "expcontainer:reinforced_acacia_small_box",
                    		"properties" : [
                    			"have",
                    			"lit"
                    		]
                    	},
                    	{
                    		"function" : "minecraft:explosion_decay"
                    	}
                    ],
                    "type": "minecraft:item",
                    "name": "expcontainer:reinforced_acacia_small_box"
                }
            ]
        }
    ]
}
