{
    "variants": {
        "facing=up,have=false,locked=false": {
            "model": "expcontainer:block/reinforced_spruce_small_box_deactive"
        },
        "facing=west,have=false,locked=false": {
            "model": "expcontainer:block/reinforced_spruce_small_box_deactive",
            "x": 90,
            "y": 270
        },
        "facing=east,have=false,locked=false": {
            "model": "expcontainer:block/reinforced_spruce_small_box_deactive",
            "x": 90,
            "y": 90
        },
        "facing=down,have=false,locked=false": {
            "model": "expcontainer:block/reinforced_spruce_small_box_deactive",
            "x": 180
        },
        "facing=north,have=false,locked=false": {
            "model": "expcontainer:block/reinforced_spruce_small_box_deactive",
            "x": 90
        },
        "facing=south,have=false,locked=false": {
            "model": "expcontainer:block/reinforced_spruce_small_box_deactive",
            "x": 90,
            "y": 180
        },
        "facing=up,have=true,locked=false": {
            "model": "expcontainer:block/reinforced_spruce_small_box_active"
        },
        "facing=west,have=true,locked=false": {
            "model": "expcontainer:block/reinforced_spruce_small_box_active",
            "x": 90,
            "y": 270
        },
        "facing=east,have=true,locked=false": {
            "model": "expcontainer:block/reinforced_spruce_small_box_active",
            "x": 90,
            "y": 90
        },
        "facing=down,have=true,locked=false": {
            "model": "expcontainer:block/reinforced_spruce_small_box_active",
            "x": 180
        },
        "facing=north,have=true,locked=false": {
            "model": "expcontainer:block/reinforced_spruce_small_box_active",
            "x": 90
        },
        "facing=south,have=true,locked=false": {
            "model": "expcontainer:block/reinforced_spruce_small_box_active",
            "x": 90,
            "y": 180
        },
        "facing=up,locked=true": {
            "model": "expcontainer:block/reinforced_spruce_small_box_deactive"
        },
        "facing=west,locked=true": {
            "model": "expcontainer:block/reinforced_spruce_small_box_deactive",
            "x": 90,
            "y": 270
        },
        "facing=east,locked=true": {
            "model": "expcontainer:block/reinforced_spruce_small_box_deactive",
            "x": 90,
            "y": 90
        },
        "facing=down,locked=true": {
            "model": "expcontainer:block/reinforced_spruce_small_box_deactive",
            "x": 180
        },
        "facing=north,locked=true": {
            "model": "expcontainer:block/reinforced_spruce_small_box_deactive",
            "x": 90
        },
        "facing=south,locked=true": {
            "model": "expcontainer:block/reinforced_spruce_small_box_deactive",
            "x": 90,
            "y": 180
        }
    }
}