{
    "parent": "block/cube_bottom_top",
    "textures": {
        "bottom": "expcontainer:block/oak_small_box_bottom",
        "top": "expcontainer:block/oak_small_box_active",
        "side": "expcontainer:block/oak_small_box_side"
    }
}
