{
    "parent": "block/cube_bottom_top",
    "textures": {
        "top": "expcontainer:block/reinforced_acacia_small_box_active",
        "side": "expcontainer:block/reinforced_acacia_small_box_side",
        "bottom": "expcontainer:block/reinforced_small_box_bottom"
    }
}
