{
    "type": "minecraft:crafting_shaped",
    "pattern": [
        "PSP",
        "PBP",
        "PSP"
    ],
    "key": {
        "P": {
            "item": "minecraft:birch_planks"
        },
        "S": {
            "item": "minecraft:birch_slab"
        },
        "B": {
            "item": "minecraft:experience_bottle"
        }
    },
    "result": {
        "item": "expcontainer:birch_small_box",
        "count": 1
    }
}
